{
    "contexts": [
        {
            "name": "Florence April 2017",
            "users": ["vittorio"],
            "start_date": "2017-04-01",
            "end_date": "2017-04-08",
            "attributes_ui": {
                "color": "#38761d"
            }
        },
        {
            "name": "Bucharest March 2018",
            "users": ["vittorio"],
            "start_date": "2017-03-01",
            "end_date": "2017-03-15",
            "attributes_ui": {
                "color": "#aa0000"
            }
        }
    ]
}
